[{
  "_id": {
    "$oid": "60c027d5d5de964e107ff027"
  },
  "name": "root",
  "email": "root@root",
  "password": "$2b$12$P.IeqW7lVhCnnwErJb4aLu0HJDalR6f/Qn5echj1iSfuVTtJYAbKe",
  "__v": 0
},{
  "_id": {
    "$oid": "60c02821d5de964e107ff028"
  },
  "name": "root2",
  "email": "root2@root2",
  "password": "$2b$12$KaVHtsZis1M0Gckl9qA7EesGK0abIfmhpSh4.WYcSjveoA2xsehaO",
  "__v": 0
}]