<svg xmlns="http://www.w3.org/2000/svg" width="357.804" height="275" viewBox="0 0 357.804 275">
  <g id="connexion" transform="translate(0 -59.148)">
    <path id="Tracé_237" data-name="Tracé 237" d="M357.8,110.183v224.33a8.64,8.64,0,0,1-8.642,8.642H14.835l-3.41-53.549L0,110.184l21.135-14.19,305.1-6.824Z" transform="translate(0 -9.007)" fill="#fafbf8"/>
    <path id="Tracé_238" data-name="Tracé 238" d="M26.646,346.08h-18A8.64,8.64,0,0,1,0,337.438V113.108l9.956-14.19L18,113.108v224.33A8.64,8.64,0,0,0,26.646,346.08Z" transform="translate(0 -11.932)" fill="#fafbf8"/>
    <path id="Tracé_239" data-name="Tracé 239" d="M360.484,67.79v33.386H18.793l-9.86-16.8,8.948-25.231H351.843A8.644,8.644,0,0,1,360.484,67.79Z" transform="translate(-2.68 0)" fill="#a3b18a"/>
    <path id="Tracé_240" data-name="Tracé 240" d="M26.646,59.148A8.644,8.644,0,0,0,18,67.79v33.386H0V67.79a8.644,8.644,0,0,1,8.642-8.642Z" fill="#a3b18a"/>
    <path id="Tracé_241" data-name="Tracé 241" d="M278.625,263.981H258.833l-23.752-6.807-26.126,6.807H189.162c-.856,0-7.73-27-5.392-41.351,2.556-15.68,16-58.118,49.2-58.614a60.608,60.608,0,0,1,47.876,98.93,2.866,2.866,0,0,1-2.219,1.036Z" transform="translate(-54.992 -31.461)" fill="#b6c4cf"/>
    <path id="Tracé_242" data-name="Tracé 242" d="M184.837,224.616A60.311,60.311,0,0,0,198.5,262.943a2.859,2.859,0,0,0,2.218,1.037H184.874a2.859,2.859,0,0,1-2.218-1.037,60.607,60.607,0,0,1,54.855-98.417A60.476,60.476,0,0,0,184.837,224.616Z" transform="translate(-50.703 -31.461)" fill="#9facba"/>
    <path id="Tracé_243" data-name="Tracé 243" d="M269.835,289.107V272.7A24.944,24.944,0,0,0,244.9,247.756c-13.777,0-12.143,9.088-12.143,22.858l-12.8,18.494Z" transform="translate(-65.994 -56.588)" fill="#fe99a0"/>
    <path id="Tracé_244" data-name="Tracé 244" d="M253.9,249.427A24.962,24.962,0,0,0,237.961,272.7v16.412h-18V272.7A24.962,24.962,0,0,1,253.9,249.427Z" transform="translate(-65.994 -56.588)" fill="#fd8087"/>
    <circle id="Ellipse_18" data-name="Ellipse 18" cx="16.766" cy="16.766" r="16.766" transform="translate(162.135 158.722)" fill="#f2fbff"/>
    <path id="Tracé_245" data-name="Tracé 245" d="M231.288,92.17H41.981a5.25,5.25,0,0,1,0-10.5H231.289a5.25,5.25,0,1,1,0,10.5Z" transform="translate(-11.02 -6.757)" fill="#c5d3dd"/>
    <path id="Tracé_246" data-name="Tracé 246" d="M463.643,92.17H461.2a5.25,5.25,0,0,1,0-10.5h2.442a5.25,5.25,0,1,1,0,10.5Z" transform="translate(-136.799 -6.757)" fill="#d8ecfe"/>
    <path id="Tracé_247" data-name="Tracé 247" d="M434.433,92.17h-2.442a5.25,5.25,0,0,1,0-10.5h2.442a5.25,5.25,0,0,1,0,10.5Z" transform="translate(-128.035 -6.757)" fill="#f2fdec"/>
    <path id="Tracé_248" data-name="Tracé 248" d="M405.222,92.17H402.78a5.25,5.25,0,1,1,0-10.5h2.442a5.25,5.25,0,0,1,0,10.5Z" transform="translate(-119.271 -6.757)" fill="#d8ecfe"/>
    <g id="Groupe_255" data-name="Groupe 255" transform="translate(74.533 260.052)">
      <path id="Tracé_249" data-name="Tracé 249" d="M147.711,375.756l-8.8-5.082,8.8-5.082a5.25,5.25,0,0,0-5.25-9.093l-8.8,5.082V351.416a5.25,5.25,0,0,0-10.5,0v10.165l-8.8-5.082a5.25,5.25,0,0,0-5.25,9.093l8.8,5.082-8.8,5.082a5.25,5.25,0,1,0,5.25,9.093l8.8-5.082v10.165a5.25,5.25,0,0,0,10.5,0V379.766l8.8,5.082a5.25,5.25,0,1,0,5.25-9.093Z" transform="translate(-106.48 -346.166)" fill="#c5d3dd"/>
      <path id="Tracé_250" data-name="Tracé 250" d="M226.229,375.756l-8.8-5.082,8.8-5.082a5.25,5.25,0,1,0-5.25-9.093l-8.8,5.082V351.416a5.25,5.25,0,0,0-10.5,0v10.165l-8.8-5.082a5.25,5.25,0,0,0-5.25,9.093l8.8,5.082-8.8,5.082a5.25,5.25,0,1,0,5.25,9.093l8.8-5.082v10.165a5.25,5.25,0,0,0,10.5,0V379.766l8.8,5.082a5.25,5.25,0,1,0,5.25-9.093Z" transform="translate(-130.038 -346.166)" fill="#c5d3dd"/>
      <path id="Tracé_251" data-name="Tracé 251" d="M304.748,375.756l-8.8-5.082,8.8-5.082a5.25,5.25,0,0,0-5.25-9.093l-8.8,5.082V351.416a5.25,5.25,0,0,0-10.5,0v10.165l-8.8-5.082a5.25,5.25,0,0,0-5.25,9.093l8.8,5.082-8.8,5.082a5.25,5.25,0,1,0,5.25,9.093l8.8-5.082v10.165a5.25,5.25,0,0,0,10.5,0V379.766l8.8,5.082a5.25,5.25,0,1,0,5.25-9.093Z" transform="translate(-153.596 -346.166)" fill="#c5d3dd"/>
      <path id="Tracé_252" data-name="Tracé 252" d="M383.266,375.756l-8.8-5.082,8.8-5.082a5.25,5.25,0,0,0-5.25-9.093l-8.8,5.082V351.416a5.25,5.25,0,0,0-10.5,0v10.165l-8.8-5.082a5.25,5.25,0,0,0-5.25,9.093l8.8,5.082-8.8,5.082a5.25,5.25,0,1,0,5.25,9.093l8.8-5.082v10.165a5.25,5.25,0,0,0,10.5,0V379.766l8.8,5.082a5.25,5.25,0,1,0,5.25-9.093Z" transform="translate(-177.154 -346.166)" fill="#c5d3dd"/>
    </g>
  </g>
</svg>
