<svg id="enter" xmlns="http://www.w3.org/2000/svg" width="30" height="30" viewBox="0 0 30 30">
  <path id="Tracé_253" data-name="Tracé 253" d="M12.813,209.875H.938a.938.938,0,0,1,0-1.875H12.813a.938.938,0,0,1,0,1.875Zm0,0" transform="translate(0 -195.813)" fill="#4a4a4a"/>
  <path id="Tracé_254" data-name="Tracé 254" d="M123.609,139.235a.938.938,0,0,1-.663-1.6l4.025-4.025-4.025-4.024a.938.938,0,1,1,1.326-1.326l4.688,4.688a.938.938,0,0,1,0,1.326l-4.687,4.688A.936.936,0,0,1,123.609,139.235Zm0,0" transform="translate(-115.484 -120.485)" fill="#4a4a4a"/>
  <path id="Tracé_255" data-name="Tracé 255" d="M301.168,30.078a2.5,2.5,0,0,1-2.5-2.5V5.078A2.516,2.516,0,0,1,300.36,2.7L307.87.2a2.526,2.526,0,0,1,3.3,2.378v22.5a2.517,2.517,0,0,1-1.691,2.372l-7.513,2.505a2.615,2.615,0,0,1-.8.122Zm7.5-28.125a.735.735,0,0,0-.224.033l-7.479,2.494a.645.645,0,0,0-.423.6v22.5a.659.659,0,0,0,.849.593l7.479-2.494a.647.647,0,0,0,.423-.6V2.578A.626.626,0,0,0,308.668,1.953Zm0,0" transform="translate(-281.168 -0.078)" fill="#4a4a4a"/>
  <path id="Tracé_256" data-name="Tracé 256" d="M171.605,6.25a.938.938,0,0,1-.937-.937V3.438A3.44,3.44,0,0,1,174.105,0h14.063a.938.938,0,0,1,0,1.875H174.105a1.565,1.565,0,0,0-1.562,1.563V5.313A.938.938,0,0,1,171.605,6.25Zm0,0" transform="translate(-160.668 0)" fill="#4a4a4a"/>
  <path id="Tracé_257" data-name="Tracé 257" d="M179.105,347.582h-5a3.44,3.44,0,0,1-3.437-3.438V342.27a.938.938,0,0,1,1.875,0v1.875a1.565,1.565,0,0,0,1.562,1.563h5a.938.938,0,0,1,0,1.875Zm0,0" transform="translate(-160.668 -321.332)" fill="#4a4a4a"/>
</svg>
